AnalysisData and Analysis class accessors — dat • metabolyseR
…
nSamples: Return the number of samples.

nFeatures: Return the number of features.

analysisResults: Return results from an Analysis object of an analysis element.

    Examples

library(metaboData)

d <- analysisData(abr1$neg[,200:300],abr1$fact)

## Return the metabolomic data
dat(d)
#> # A tibble: 120 × 101
#>     N200  N201  N202  N203  N204  N205   N206  N207  N208  N209  N210   N211
#>    <dbl> <dbl> <dbl> <dbl> <dbl> <dbl>  <dbl> <dbl> <dbl> <dbl> <dbl>  <dbl>
#>  1     0  0    0     2.98  0     0     0      0.468 0     1.43  0     0.170 
#>  2     0  0    0     1.30  0     1.15  0      0     0     0.492 0     0     
#>  3     0  0    0     6.08  0.214 2.53  0      1.85  0     1.06  0.184 0.0827
#>  4     0  4.24 0     1.48  0     0     0.147  0     0     0.929 0     0.286 
#>  5     0  0    0     0.530 0     0.233 0.376  1.41  0     0.274 0     0.139 
#>  6     0  0    0     0     0     0.438 0      0     0.219 0.325 0     0     
#>  7     0  0    0     0.547 0     0     0      0     0     0     0     0     
#>  8     0  0    0.195 1.37  0.594 1.11  0.0902 0     0     0     0.162 0     
#>  9     0  0    0     1.24  0     0.196 0.675  0.528 0.128 2.61  0.294 2.66  
#> 10     0  0    0     0.113 0     1.06  0      0     0     1.76  2.96  0     
#> # … with 110 more rows, and 89 more variables: N212 <dbl>, N213 <dbl>,
#> #   N214 <dbl>, N215 <dbl>, N216 <dbl>, N217 <dbl>, N218 <dbl>, N219 <dbl>,
#> #   N220 <dbl>, N221 <dbl>, N222 <dbl>, N223 <dbl>, N224 <dbl>, N225 <dbl>,
#> #   N226 <dbl>, N227 <dbl>, N228 <dbl>, N229 <dbl>, N230 <dbl>, N231 <dbl>,
#> #   N232 <dbl>, N233 <dbl>, N234 <dbl>, N235 <dbl>, N236 <dbl>, N237 <dbl>,
#> #   N238 <dbl>, N239 <dbl>, N240 <dbl>, N241 <dbl>, N242 <dbl>, N243 <dbl>,
#> #   N244 <dbl>, N245 <dbl>, N246 <dbl>, N247 <dbl>, N248 <dbl>, N249 <dbl>, …

## Set the metabolomic data
dat(d) <- abr1$neg[,300:400]

## Return the sample information
sinfo(d)
#> # A tibble: 120 × 9
#>    injorder pathcdf               filecdf name.…¹ remark name    rep day   class
#>       <int> <fct>                 <fct>   <fct>   <fct>  <fct> <int> <fct> <int>
#>  1        1 C:/Xcalibur/ANDI-LTQ… 01.cdf  12_2    ok     12_2      2 2         2
#>  2        2 C:/Xcalibur/ANDI-LTQ… 02.cdf  13_3    ok     13_4      3 3         3
#>  3        3 C:/Xcalibur/ANDI-LTQ… 03.cdf  15_4    ok     15_5      5 4         4
#>  4        4 C:/Xcalibur/ANDI-LTQ… 04.cdf  12_1    ok     12_2      2 1         1
#>  5        5 C:/Xcalibur/ANDI-LTQ… 05.cdf  12_2    ok     12_2      2 2         2
#>  6        6 C:/Xcalibur/ANDI-LTQ… 06.cdf  11_1    ok     11_2      1 1         1
#>  7        7 C:/Xcalibur/ANDI-LTQ… 07.cdf  14_2    ok     14_3      4 2         2
#>  8        8 C:/Xcalibur/ANDI-LTQ… 08.cdf  11_4    ok     11_5      1 4         4
#>  9        9 C:/Xcalibur/ANDI-LTQ… 09.cdf  13_H    ok     13_H      3 H         6
#> 10       10 C:/Xcalibur/ANDI-LTQ… 10.cdf  15_H    ok     15_H      5 H         6
#> # … with 110 more rows, and abbreviated variable name ¹​name.org
…
