Feature correlation analysis — correlations • metabolyseR
…
    Details

    Correlation analyses can be used to identify associated features within data sets.
This can be useful to identifying clusters of related features that can be used to annotate metabolites within data sets.
All features are compared and the returned table of correlations are thresholded to the specified p-value cut-off.

    Examples

library(metaboData)

d <- analysisData(abr1$neg[,200:300],abr1$fact)

correlations(d)
#> # A tibble: 130 × 7
#>    Feature1 Feature2 log2IntensityRatio coefficient |coefficient…¹       p     n
#>    <chr>    <chr>                 <dbl>       <dbl>          <dbl>   <dbl> <int>
#>  1 N212     N227                 -0.884       0.980          0.980 1.07e-2     7
#>  2 N224     N286                  1.85        0.971          0.971 6.12e-3     8
#>  3 N215     N276                  0.227       0.965          0.965 4.19e-2     7
#>  4 N224     N265                  0.576       0.943          0.943 1.38e-3    11
#>  5 N201     N275                 -1.59        0.909          0.909 2.64e-2    10
#>  6 N213     N231                 -1.63        0.883          0.883 0         108
#>  7 N224     N225                 -0.792       0.863          0.863 1.76e-7    29
#>  8 N258     N263                 -2.89        0.857          0.857 1.81e-2    13
#>  9 N267     N297                 -0.671       0.853          0.853 0         120
#> 10 N211     N291                 -1.55        0.831          0.831 1.06e-3    19
#> # … with 120 more rows, and abbreviated variable name ¹​`|coefficient|`
…
