Predict random forest model responses — predict • metabolyseR
…
## Extract data for which response values will be predicted
test_data <- x %>% 
  keepClasses(cls = 'day',
              classes = c('2','3'))

rf <- randomForest(training_data,
                   cls = 'day',
                   returnModels = TRUE)

predict(rf,
        test_data)
#> # A tibble: 40 × 5
#>    response comparison   rep sample prediction
#>    <chr>    <chr>      <dbl>  <int> <fct>     
#>  1 day      1~H            1      1 H         
#>  2 day      1~H            1      2 H         
#>  3 day      1~H            1      3 H         
#>  4 day      1~H            1      4 H         
#>  5 day      1~H            1      5 H         
#>  6 day      1~H            1      6 H         
#>  7 day      1~H            1      7 H         
#>  8 day      1~H            1      8 H         
#>  9 day      1~H            1      9 H         
#> 10 day      1~H            1     10 1         
#> # ℹ 30 more rows
…
