Introduction • metabolyseR
…
We can also return the numbers of samples and numbers of features respectively using the following:

nSamples(d)

## [1] 120

nFeatures(d)

## [1] 2000

The data table can be extracted using the dat method:

dat(d)

## # A tibble: 120 × 2,000
##       N1    N2    N3    N4    N5    N6    N7    N8    N9   N10   N11   N12   N13
##    <dbl> <dbl> <dbl> <dbl> <dbl> <dbl> <dbl> <dbl> <dbl> <dbl> <dbl> <dbl> <dbl>
##  1     0     0     0     0     0     0     0     0     0     0     0     0     0
##  2     0     0     0     0     0     0     0     0     0     0     0     0     0
##  3     0     0     0     0     0     0     0     0     0     0     0     0     0
##  4     0     0     0     0     0     0     0     0     0     0     0     0     0
##  5     0     0     0     0     0     0     0     0     0     0     0     0     0
##  6     0     0     0     0     0     0     0     0     0     0     0     0     0
##  7     0     0     0     0     0     0     0     0     0     0     0     0     0
##  8     0     0     0     0     0     0     0     0     0     0     0     0     0
##  9     0     0     0     0     0     0     0     0     0     0     0     0     0
## 10     0     0     0     0     0     0     0     0     0     0     0     0     0
## # … with 110 more rows, and 1,987 more variables: N14 <dbl>, N15 <dbl>,
## #   N16 <dbl>, N17 <dbl>, N18 <dbl>, N19 <dbl>, N20 <dbl>, N21 <dbl>,
## #   N22 <dbl>, N23 <dbl>, N24 <dbl>, N25 <dbl>, N26 <dbl>, N27 <dbl>,
## #   N28 <dbl>, N29 <dbl>, N30 <dbl>, N31 <dbl>, N32 <dbl>, N33 <dbl>,
## #   N34 <dbl>, N35 <dbl>, N36 <dbl>, N37 <dbl>, N38 <dbl>, N39 <dbl>,
## #   N40 <dbl>, N41 <dbl>, N42 <dbl>, N43 <dbl>, N44 <dbl>, N45 <dbl>,
## #   N46 <dbl>, N47 <dbl>, N48 <dbl>, N49 <dbl>, N50 <dbl>, N51 <dbl>, …
…
dat(d) <- abr1$pos
d

## 
## AnalysisData object containing:
## 
## Samples: 120 
## Features: 2000 
## Info: 9

The sample information table can be extracted using the sinfo method:

sinfo(d)

## # A tibble: 120 × 9
##    injorder pathcdf              filecdf name.org remark name    rep day   class
##       <int> <fct>                <fct>   <fct>    <fct>  <fct> <int> <fct> <int>
##  1        1 C:/Xcalibur/ANDI-LT… 01.cdf  12_2     ok     12_2      2 2         2
##  2        2 C:/Xcalibur/ANDI-LT… 02.cdf  13_3     ok     13_4      3 3         3
##  3        3 C:/Xcalibur/ANDI-LT… 03.cdf  15_4     ok     15_5      5 4         4
##  4        4 C:/Xcalibur/ANDI-LT… 04.cdf  12_1     ok     12_2      2 1         1
##  5        5 C:/Xcalibur/ANDI-LT… 05.cdf  12_2     ok     12_2      2 2         2
##  6        6 C:/Xcalibur/ANDI-LT… 06.cdf  11_1     ok     11_2      1 1         1
##  7        7 C:/Xcalibur/ANDI-LT… 07.cdf  14_2     ok     14_3      4 2         2
##  8        8 C:/Xcalibur/ANDI-LT… 08.cdf  11_4     ok     11_5      1 4         4
##  9        9 C:/Xcalibur/ANDI-LT… 09.cdf  13_H     ok     13_H      3 H         6
## 10       10 C:/Xcalibur/ANDI-LT… 10.cdf  15_H     ok     15_H      5 H         6
## # … with 110 more rows
…
Extracting analysis results

An analysis performed by metabolyse() returns an S4 object of class Analysis. There are a number of ways of extracting analysis results from this object.

Similarly to the AnalysisData class, the dat() and sinfo() functions can be used to extract the metabolomics data or sample information tables directly for either the raw or pre-treated data.

For example, to extract the pre-treated metabolomics data from our object analysis:

dat(analysis,type = 'pre-treated')

## # A tibble: 120 × 48
##       N113    N115    N117    N118    N119    N127    N128    N129  N130    N131
##      <dbl>   <dbl>   <dbl>   <dbl>   <dbl>   <dbl>   <dbl>   <dbl> <dbl>   <dbl>
##  1 0.00646 0       1.68e-4 0       1.60e-3 0.0323  2.65e-4 2.80e-4     0 0      
##  2 0.0113  7.74e-4 1.02e-3 0       1.43e-3 0.00856 0       3.95e-4     0 0      
##  3 0.00931 6.01e-4 2.70e-3 6.22e-5 5.58e-3 0       0       1.05e-4     0 6.51e-4
##  4 0.00798 0       0       0       1.62e-4 0.00848 0       4.05e-4     0 1.28e-4
##  5 0.0105  0       0       0       0       0.00658 0       1.97e-3     0 0      
##  6 0.00454 0       2.48e-4 3.25e-4 5.31e-4 0.00207 0       1.98e-4     0 0      
##  7 0.0117  0       1.14e-3 0       4.39e-4 0.00603 0       4.04e-4     0 0      
##  8 0.00787 2.36e-3 1.43e-3 1.52e-4 4.22e-3 0.00290 2.78e-4 5.76e-5     0 0      
##  9 0.00136 1.87e-4 8.17e-4 1.87e-4 0       0.0610  1.31e-4 5.23e-4     0 0      
## 10 0.00899 4.26e-4 2.06e-3 0       8.36e-4 0.00106 7.72e-4 0           0 0      
## # … with 110 more rows, and 38 more variables: N132 <dbl>, N133 <dbl>,
## #   N134 <dbl>, N135 <dbl>, N136 <dbl>, N137 <dbl>, N139 <dbl>, N143 <dbl>,
## #   N145 <dbl>, N146 <dbl>, N147 <dbl>, N149 <dbl>, N153 <dbl>, N155 <dbl>,
## #   N157 <dbl>, N161 <dbl>, N163 <dbl>, N164 <dbl>, N165 <dbl>, N168 <dbl>,
## #   N169 <dbl>, N170 <dbl>, N171 <dbl>, N173 <dbl>, N174 <dbl>, N175 <dbl>,
## #   N179 <dbl>, N180 <dbl>, N181 <dbl>, N183 <dbl>, N187 <dbl>, N191 <dbl>,
## #   N192 <dbl>, N193 <dbl>, N195 <dbl>, N196 <dbl>, N197 <dbl>, N198 <dbl>

Or to extract the raw sample information:

sinfo(analysis,type = 'raw')

## # A tibble: 120 × 9
##    injorder pathcdf              filecdf name.org remark name    rep day   class
##       <int> <fct>                <fct>   <fct>    <fct>  <fct> <int> <fct> <int>
##  1        1 C:/Xcalibur/ANDI-LT… 01.cdf  12_2     ok     12_2      2 2         2
##  2        2 C:/Xcalibur/ANDI-LT… 02.cdf  13_3     ok     13_4      3 3         3
##  3        3 C:/Xcalibur/ANDI-LT… 03.cdf  15_4     ok     15_5      5 4         4
##  4        4 C:/Xcalibur/ANDI-LT… 04.cdf  12_1     ok     12_2      2 1         1
##  5        5 C:/Xcalibur/ANDI-LT… 05.cdf  12_2     ok     12_2      2 2         2
##  6        6 C:/Xcalibur/ANDI-LT… 06.cdf  11_1     ok     11_2      1 1         1
##  7        7 C:/Xcalibur/ANDI-LT… 07.cdf  14_2     ok     14_3      4 2         2
##  8        8 C:/Xcalibur/ANDI-LT… 08.cdf  11_4     ok     11_5      1 4         4
##  9        9 C:/Xcalibur/ANDI-LT… 09.cdf  13_H     ok     13_H      3 H         6
## 10       10 C:/Xcalibur/ANDI-LT… 10.cdf  15_H     ok     15_H      5 H         6
## # … with 110 more rows
…
