Modelling and feature selection • metabolyseR
…
classification_rf %>%
  metrics()
#> # A tibble: 4 x 5
#>   Response Comparison  .metric  .estimator .estimate
#>   <chr>    <chr>       <chr>    <chr>          <dbl>
#> 1 day      1~2~3~4~5~H accuracy multiclass     0.775
#> 2 day      1~2~3~4~5~H kap      multiclass     0.73 
#> 3 day      1~2~3~4~5~H roc_auc  hand_till      0.960
#> 4 day      1~2~3~4~5~H margin   <NA>           0.142

classification_rf %>%
  importance()
#> # A tibble: 5,000 x 5
#>    Response Comparison  Feature Metric               Value
#>    <chr>    <chr>       <chr>   <chr>                <dbl>
#>  1 day      1~2~3~4~5~H N1      1                    0    
#>  2 day      1~2~3~4~5~H N1      2                    0    
#>  3 day      1~2~3~4~5~H N1      3                    0    
#>  4 day      1~2~3~4~5~H N1      4                    0    
#>  5 day      1~2~3~4~5~H N1      5                    0    
#>  6 day      1~2~3~4~5~H N1      FalsePositiveRate    0.559
#>  7 day      1~2~3~4~5~H N1      H                    0    
#>  8 day      1~2~3~4~5~H N1      MeanDecreaseAccuracy 0    
#>  9 day      1~2~3~4~5~H N1      MeanDecreaseGini     0    
#> 10 day      1~2~3~4~5~H N1      SelectionFrequency   0    
#> # … with 4,990 more rows

importanceMetrics(classification_rf)
#>  [1] "1"                    "2"                    "3"                   
#>  [4] "4"                    "5"                    "FalsePositiveRate"   
#>  [7] "H"                    "MeanDecreaseAccuracy" "MeanDecreaseGini"    
#> [10] "SelectionFrequency"

classification_rf %>%
  explanatoryFeatures(metric = 'MeanDecreaseGini',threshold = 0.1)
#> # A tibble: 258 x 5
#>    Response Comparison  Feature Metric           Value
#>    <chr>    <chr>       <chr>   <chr>            <dbl>
#>  1 day      1~2~3~4~5~H N111    MeanDecreaseGini 0.140
#>  2 day      1~2~3~4~5~H N113    MeanDecreaseGini 0.617
#>  3 day      1~2~3~4~5~H N115    MeanDecreaseGini 1.23 
#>  4 day      1~2~3~4~5~H N117    MeanDecreaseGini 0.635
#>  5 day      1~2~3~4~5~H N119    MeanDecreaseGini 0.976
#>  6 day      1~2~3~4~5~H N127    MeanDecreaseGini 0.131
#>  7 day      1~2~3~4~5~H N129    MeanDecreaseGini 0.162
#>  8 day      1~2~3~4~5~H N130    MeanDecreaseGini 0.315
#>  9 day      1~2~3~4~5~H N131    MeanDecreaseGini 1.04 
#> 10 day      1~2~3~4~5~H N132    MeanDecreaseGini 0.792
#> # … with 248 more rows
…
importance(unsupervised_rf)
#> # A tibble: 3,000 x 3
#>    Feature Metric                Value
#>    <chr>   <chr>                 <dbl>
#>  1 N1      1                    0     
#>  2 N1      2                    0     
#>  3 N1      FalsePositiveRate    0.0238
#>  4 N1      MeanDecreaseAccuracy 0     
#>  5 N1      MeanDecreaseGini     0     
#>  6 N1      SelectionFrequency   0     
#>  7 N10     1                    0     
#>  8 N10     2                    0     
#>  9 N10     FalsePositiveRate    0.0238
#> 10 N10     MeanDecreaseAccuracy 0     
#> # … with 2,990 more rows

importanceMetrics(unsupervised_rf)
#> [1] "1"                    "2"                    "FalsePositiveRate"   
#> [4] "MeanDecreaseAccuracy" "MeanDecreaseGini"     "SelectionFrequency"

unsupervised_rf %>%
  explanatoryFeatures()
#> # A tibble: 365 x 3
#>    Feature Metric             Value
#>    <chr>   <chr>              <dbl>
#>  1 N1      FalsePositiveRate 0.0238
#>  2 N10     FalsePositiveRate 0.0238
#>  3 N100    FalsePositiveRate 0.0238
#>  4 N101    FalsePositiveRate 0.0238
#>  5 N102    FalsePositiveRate 0.0238
#>  6 N103    FalsePositiveRate 0.0238
#>  7 N104    FalsePositiveRate 0.0238
#>  8 N105    FalsePositiveRate 0.0238
#>  9 N106    FalsePositiveRate 0.0238
#> 10 N107    FalsePositiveRate 0.0238
#> # … with 355 more rows
…
