Metabolomics data pre-treatment • metabolyseR
…
There are likely to be occasions where the numbers of samples, classes or features to keep are greater than the numbers of samples, classes or features that are to be excluded. In these situations it will be more convenient to directly specify the samples, classes or features to remove. Removing samples, classes or features is outlined in the previous section.

Variable filtering based on occupancy

Occupancy provides a useful metric by which to filter poorly represented features (features containing a majority zero or missing values). An occupancy threshold provides a means of specifying this majority with variables below the threshold excluded from further analyses. However, this can be complicated by an underlying class structure present within the data where a variable may be well represented within one class but not in another.

The proportional occupancy for each feature within a data set for a given class structure can be calculated using the occupancy function, specifying the sample information column using the cls argument.

d %>%
  occupancy(cls = 'day')
#> # A tibble: 11,914 x 4
#>    day   Feature     N Occupancy
#>    <fct> <chr>   <dbl>     <dbl>
#>  1 1     N1          0         0
#>  2 1     N10         0         0
#>  3 1     N100        0         0
#>  4 1     N1000      20         1
#>  5 1     N1001      20         1
#>  6 1     N1002      20         1
#>  7 1     N1003      20         1
#>  8 1     N1004      20         1
#>  9 1     N1005      20         1
#> 10 1     N1006      20         1
#> # … with 11,904 more rows
…
Feature filtering based on quality control (QC) samples

A QC sample is an average pooled sample, equally representative in composition of all the samples present within an experimental set. Within an analytical run, the QC sample is analysed intermittently at equal intervals throughout the run. If there is class structure within the run this should be randomised within a block fashion so that the classes are equally represented in each block throughout the run. QC samples can then be injected between these randomised blocks. This provides a set of technical injections that allows the variability in instrument performance over the run to be accounted for and the robustness of the acquired variables to be assessed.

The technical reproducibility of an acquired variable can be assessed using it’s relative standard deviation (RSD) within the QC samples. The variable RSDs can then be thresholded to filter out variables that are poorly reproducible across the analytical runs. This variable filtering strategy has an advantage over that of occupancy alone as it is not dependent on underlying class structure. Therefore the variables and variable numbers will not alter if a new class structure is imposed upon the data.

The methods and arguments for variable filtering based upon QC samples are shown in the table below.

QC <- d %>%
  keepClasses(cls = 'day',classes = 'H')

QC %>%
  rsd(cls = 'day')
#> # A tibble: 2,000 x 3
#> # Groups:   day [1]
#>    day   Feature     RSD
#>    <fct> <chr>     <dbl>
#>  1 H     N1      NaN    
#>  2 H     N10     NaN    
#>  3 H     N100    NaN    
#>  4 H     N1000     0.170
#>  5 H     N1001     0.217
#>  6 H     N1002     0.276
#>  7 H     N1003     0.219
#>  8 H     N1004     0.205
#>  9 H     N1005     0.179
#> 10 H     N1006     0.271
#> # … with 1,990 more rows
…
