Modelling accessor methods — binaryComparisons • metabolyseR
…
## Show the available feature importance metrics
importanceMetrics(rf_analysis)
#>  [1] "1"                    "2"                    "3"                   
#>  [4] "4"                    "5"                    "FalsePositiveRate"   
#>  [7] "H"                    "MeanDecreaseAccuracy" "MeanDecreaseGini"    
#> [10] "SelectionFrequency"  

## Retrieve the feature importance results
importance(rf_analysis)
#> # A tibble: 1,010 × 5
#>    Response Comparison  Feature Metric                  Value
#>    <chr>    <chr>       <chr>   <chr>                   <dbl>
#>  1 day      1~2~3~4~5~H N200    1                    0       
#>  2 day      1~2~3~4~5~H N200    2                    0       
#>  3 day      1~2~3~4~5~H N200    3                    0       
#>  4 day      1~2~3~4~5~H N200    4                    0       
#>  5 day      1~2~3~4~5~H N200    5                    0       
#>  6 day      1~2~3~4~5~H N200    FalsePositiveRate    2.35e-40
#>  7 day      1~2~3~4~5~H N200    H                    0       
#>  8 day      1~2~3~4~5~H N200    MeanDecreaseAccuracy 0       
#>  9 day      1~2~3~4~5~H N200    MeanDecreaseGini     6.00e- 2
#> 10 day      1~2~3~4~5~H N200    SelectionFrequency   1.6 e+ 1
#> # … with 1,000 more rows

## Retrieve the explanatory features
explanatoryFeatures(rf_analysis,metric = 'FalsePositiveRate',threshold = 0.05)
#> # A tibble: 35 × 5
#>    Response Comparison  Feature Metric                Value
#>    <chr>    <chr>       <chr>   <chr>                 <dbl>
#>  1 day      1~2~3~4~5~H N229    FalsePositiveRate 5.75e-129
#>  2 day      1~2~3~4~5~H N259    FalsePositiveRate 4.88e- 72
#>  3 day      1~2~3~4~5~H N277    FalsePositiveRate 3.98e- 67
#>  4 day      1~2~3~4~5~H N255    FalsePositiveRate 3.27e- 53
#>  5 day      1~2~3~4~5~H N213    FalsePositiveRate 4.92e- 45
#>  6 day      1~2~3~4~5~H N200    FalsePositiveRate 2.35e- 40
#>  7 day      1~2~3~4~5~H N221    FalsePositiveRate 1.80e- 38
#>  8 day      1~2~3~4~5~H N299    FalsePositiveRate 4.91e- 36
#>  9 day      1~2~3~4~5~H N245    FalsePositiveRate 9.75e- 27
#> 10 day      1~2~3~4~5~H N279    FalsePositiveRate 2.38e- 20
#> # … with 25 more rows
…
