Modelling and feature selection • metabolyseR
…
The available feature importance metrics for a random forest analysis
can be retrieved by:

importanceMetrics(unsupervised_rf)
#> [1] "1"                    "2"                    "false_positive_rate" 
#> [4] "MeanDecreaseAccuracy" "MeanDecreaseGini"     "selection_frequency"

And the importance values of these metrics for each feature can
returned using:

importance(unsupervised_rf)
#> # A tibble: 3,000 × 3
#>    feature metric                value
#>    <chr>   <chr>                 <dbl>
#>  1 N1      1                    0     
#>  2 N1      2                    0     
#>  3 N1      MeanDecreaseAccuracy 0     
#>  4 N1      MeanDecreaseGini     0     
#>  5 N1      false_positive_rate  0.0238
#>  6 N1      selection_frequency  0     
#>  7 N10     1                    0     
#>  8 N10     2                    0     
#>  9 N10     MeanDecreaseAccuracy 0     
#> 10 N10     MeanDecreaseGini     0     
#> # ℹ 2,990 more rows

The explanatory features for a given threshold can be extracted for
any of the importance metrics. The following will extract the
explanatory features below a threshold of 0.05 based on the false
positive rate metric.

unsupervised_rf %>%
  explanatoryFeatures(metric = "false_positive_rate", 
                      threshold = 0.05)
#> # A tibble: 359 × 3
#>    feature metric                 value
#>    <chr>   <chr>                  <dbl>
#>  1 N342    false_positive_rate 1.31e-19
#>  2 N161    false_positive_rate 2.34e-16
#>  3 N341    false_positive_rate 6.50e-16
#>  4 N315    false_positive_rate 1.79e-15
#>  5 N367    false_positive_rate 3.47e-14
#>  6 N173    false_positive_rate 9.09e-14
#>  7 N385    false_positive_rate 9.09e-14
#>  8 N133    false_positive_rate 1.52e-12
#>  9 N439    false_positive_rate 1.52e-12
#> 10 N379    false_positive_rate 3.78e-12
#> # ℹ 349 more rows
…
importanceMetrics(multinomial_rf)
#>  [1] "1"                    "2"                    "3"                   
#>  [4] "4"                    "5"                    "false_positive_rate" 
#>  [7] "H"                    "MeanDecreaseAccuracy" "MeanDecreaseGini"    
#> [10] "selection_frequency"

Here, we will use the false positive rate metric with a threshold of
below 0.05 to identify explanatory features for the day
response variable.

multinomial_rf %>%
  explanatoryFeatures(metric = 'false_positive_rate',
                      threshold = 0.05)
#> # A tibble: 121 × 5
#>    response comparison  feature metric                 value
#>    <chr>    <chr>       <chr>   <chr>                  <dbl>
#>  1 day      1~2~3~4~5~H N341    false_positive_rate 1.02e-93
#>  2 day      1~2~3~4~5~H N133    false_positive_rate 7.38e-68
#>  3 day      1~2~3~4~5~H N163    false_positive_rate 3.59e-61
#>  4 day      1~2~3~4~5~H N439    false_positive_rate 1.07e-54
#>  5 day      1~2~3~4~5~H N342    false_positive_rate 3.19e-49
#>  6 day      1~2~3~4~5~H N377    false_positive_rate 3.19e-49
#>  7 day      1~2~3~4~5~H N171    false_positive_rate 6.26e-44
#>  8 day      1~2~3~4~5~H N497    false_positive_rate 6.11e-30
#>  9 day      1~2~3~4~5~H N146    false_positive_rate 2.74e-29
#> 10 day      1~2~3~4~5~H N195    false_positive_rate 7.16e-25
#> # ℹ 111 more rows
…
The explanatory features for these comparisons can be extracted as
below using the false positive rate metric and a cut-off threshold of
0.05. This gives a total of 251 explanatory features.

binary_rf %>% 
  explanatoryFeatures(metric = 'false_positive_rate',
                      threshold = 0.05)
#> # A tibble: 251 × 5
#>    response comparison feature metric                 value
#>    <chr>    <chr>      <chr>   <chr>                  <dbl>
#>  1 day      2~H        N341    false_positive_rate 7.34e-52
#>  2 day      2~H        N439    false_positive_rate 1.80e-45
#>  3 day      3~H        N342    false_positive_rate 2.71e-39
#>  4 day      2~H        N327    false_positive_rate 1.06e-35
#>  5 day      3~H        N439    false_positive_rate 1.06e-35
#>  6 day      2~H        N477    false_positive_rate 1.60e-34
#>  7 day      3~H        N377    false_positive_rate 1.60e-34
#>  8 day      4~H        N477    false_positive_rate 7.40e-34
#>  9 day      2~H        N447    false_positive_rate 6.48e-30
#> 10 day      3~H        N163    false_positive_rate 6.48e-30
#> # ℹ 241 more rows
…
print(ttest_analysis)
#> 
#> Univariate t-test analysis
#> 
#> Samples:  120 
#> Features:     500 
#> Responses:    day 
#> # comparisons:    3

The explanatory features that show a significant difference between
the response categories can be extracted as shown below.

explanatoryFeatures(ttest_analysis,
                    threshold = 0.05)
#> # A tibble: 73 × 14
#>    response comparison feature estimate estimate1 estimate2 statistic  p.value
#>    <chr>    <chr>      <chr>      <dbl>     <dbl>     <dbl>     <dbl>    <dbl>
#>  1 day      H~5        N163      -735.       19.5   755.       -13.8  1.43e-11
#>  2 day      H~5        N341      2445.     2537.     92.6       13.6  2.88e-11
#>  3 day      H~5        N133      1055.     1077.     21.9       13.0  5.44e-11
#>  4 day      H~2        N341       200.      293.     92.6       10.6  1.38e-10
#>  5 day      H~5        N171        62.6      64.7     2.15      11.9  2.62e-10
#>  6 day      H~5        N119        17.2      17.9     0.763     11.0  8.54e-10
#>  7 day      H~5        N342       243.      247.      4.13      10.8  1.42e- 9
#>  8 day      H~5        N343        27.4      28.3     0.961      9.83 5.99e- 9
#>  9 day      H~5        N377       152.      157.      5.05       9.81 6.75e- 9
#> 10 day      H~5        N477       103.      129.     26.1        9.30 1.05e- 8
#> # ℹ 63 more rows
#> # ℹ 6 more variables: parameter <dbl>, conf.low <dbl>, conf.high <dbl>,
#> #   method <chr>, alternative <chr>, adjusted.p.value <dbl>
…
print(anova_analysis)
#> 
#> Univariate ANOVA analysis
#> 
#> Samples:  120 
#> Features:     500 
#> Responses:    day 
#> # comparisons:    1

The explanatory features that are significantly different between the
categories can then be extracted.

explanatoryFeatures(anova_analysis,
                    threshold = 0.05)
#> # A tibble: 110 × 10
#>    response comparison  feature term        df   sumsq meansq statistic  p.value
#>    <chr>    <chr>       <chr>   <chr>    <dbl>   <dbl>  <dbl>     <dbl>    <dbl>
#>  1 day      1~2~3~4~5~H N341    response     5  1.09e8 2.17e7     124.  1.90e-44
#>  2 day      1~2~3~4~5~H N163    response     5  1.25e7 2.51e6     113.  1.71e-42
#>  3 day      1~2~3~4~5~H N133    response     5  1.96e7 3.92e6     108.  1.71e-41
#>  4 day      1~2~3~4~5~H N171    response     5  6.29e4 1.26e4      88.8 1.16e-37
#>  5 day      1~2~3~4~5~H N342    response     5  1.04e6 2.07e5      85.1 7.61e-37
#>  6 day      1~2~3~4~5~H N343    response     5  1.19e4 2.38e3      66.1 4.43e-32
#>  7 day      1~2~3~4~5~H N119    response     5  4.92e3 9.83e2      53.8 2.07e-28
#>  8 day      1~2~3~4~5~H N497    response     5  1.10e5 2.20e4      49.6 4.83e-27
#>  9 day      1~2~3~4~5~H N137    response     5  6.32e3 1.26e3      39.9 1.59e-23
#> 10 day      1~2~3~4~5~H N277    response     5  6.31e4 1.26e4      39.1 3.14e-23
#> # ℹ 100 more rows
#> # ℹ 1 more variable: adjusted.p.value <dbl>
…
This returns the results as a list containing the modelling results
objects for each specified method.

Alternatively, the modelling results can be assess directly from the
Analysis object. Below shows the extraction of the
explanatory features, using default parameters for each method, with the
results returned in a single table.

explanatory_features <- analysis %>% 
  explanatoryFeatures()

print(explanatory_features)
#> # A tibble: 100 × 17
#>    Method       response comparison feature metric      value estimate estimate1
#>    <chr>        <chr>    <chr>      <chr>   <chr>       <dbl>    <dbl>     <dbl>
#>  1 randomForest day      2~H        N341    false_p… 8.06e-28       NA        NA
#>  2 randomForest day      2~H        N377    false_p… 5.70e-18       NA        NA
#>  3 randomForest day      2~H        N447    false_p… 5.70e-18       NA        NA
#>  4 randomForest day      2~H        N579    false_p… 5.70e-18       NA        NA
#>  5 randomForest day      2~H        N1084   false_p… 1.19e-16       NA        NA
#>  6 randomForest day      2~H        N327    false_p… 2.33e-15       NA        NA
#>  7 randomForest day      2~H        N580    false_p… 4.32e-14       NA        NA
#>  8 randomForest day      2~H        N1083   false_p… 7.49e-13       NA        NA
#>  9 randomForest day      2~H        N1085   false_p… 7.49e-13       NA        NA
#> 10 randomForest day      2~H        N503    false_p… 7.49e-13       NA        NA
#> # ℹ 90 more rows
#> # ℹ 9 more variables: estimate2 <dbl>, statistic <dbl>, p.value <dbl>,
#> #   parameter <dbl>, conf.low <dbl>, conf.high <dbl>, method <chr>,
#> #   alternative <chr>, adjusted.p.value <dbl>
…
